{
	"title": "Events.RecursiveEvents",
	"model": "TeachingEvents",
	"searchExpression": "(indexof(name, '${text}') ge 0) or (day(startDate) eq ${/^\\d+$/.test(text) ? text : 0}) or (indexof(description, '${text}') ge 0)",
	"calendarEventTitleTemplate": "${startDate.toTimeString().substring(0,5)} - ${endDate.toTimeString().substring(0,5)} - ${displayCode} - ${name} - ${performer.alternateName}<% if (location) { %> - ${location} <% } %>",
	"calendarView": false,
	"selectable": false,
	"defaults": {
		"orderBy": "courseClass/title, eventHoursSpecification/validFrom desc",
		"filter": "(eventHoursSpecification ne null)",
		"expand": "sections,eventHoursSpecification, performer"
	},
	"multipleSelect": true,
	"columns": [
		{
			"name": "eventHoursSpecification/dayOfWeek",
			"property": "days",
			"title": "Events.Schedule",
			"className": "text-nowrap",
			"formatter": "EventHourSpecificationFormatter"
		},
		{
			"name": "eventHoursSpecification/validFrom",
			"property": "validFrom",
			"title": "Events.From",
			"formatter": "DateTimeFormatter",
			"formatString": "shortDate"
		},
		{
			"name": "eventHoursSpecification/validThrough",
			"property": "validThrough",
			"title": "Events.To",
			"formatter": "DateTimeFormatter",
			"formatString": "shortDate"
		},
		{
			"name": "eventHoursSpecification/opens",
			"property": "opens",
			"hidden": true
		},
		{
			"name": "eventHoursSpecification/closes",
			"property": "closes",
			"hidden": true
		},
		{
			"name": "name",
			"property": "name",
			"title": "Events.Title",
			"label": "Name",
			"hidden": false
		},
		{
			"name": "location/displayCode",
			"property": "placeCode",
			"title": "Events.Places.Code"
		},
		{
			"name": "location/name",
			"property": "location",
			"title": "Events.Places.TitleSingular"
		},
		{
			"name": "description",
			"property": "description",
			"title": "Events.Description",
			"label": "Events.Description",
			"hidden": false
		},
		{
			"name": "courseClass/title",
			"property": "courseClass",
			"title": "Events.Classes.Course",
			"formatter": "TemplateFormatter",
			"formatString": "${courseClassDisplayCode} - ${courseClass}"
		},
		{
			"name": "courseClass/course/displayCode",
			"property": "courseClassDisplayCode",
			"title": "Events.Classes.DisplayCode",
			"hidden": true
		},
		{
			"name": "sections",
			"property": "sections",
			"title": "Events.Classes.Section",
			"label": "Events.ClassSections",
			"hidden": false,
			"sortable": false,
			"virtual": true,
			"formatters": [
				{
					"formatter": "TemplateFormatter",
					"formatString": "${sections && Array.isArray(sections) && sections.length > 0 ?'<span class=\"text-center\">' + sections.map(x=> x.name).join(',') + '</span>':'-'}"
				}
			]
		},
		{
			"name": "performer",
			"title": "Events.Performer",
			"label": "Events.Performer",
			"formatter": "TemplateFormatter",
			"formatString": "${performer && performer.alternateName || '-'}"
		},
		{
			"name": "eventStatus/name",
			"property": "eventStatus",
			"formatter": "StatusFormatter",
			"title": "Events.StatusGeneral",
			"label": "Status",
			"hidden": false
		},
		{
			"name": "courseClass/year",
			"property": "year",
			"hidden": true
		},
		{
			"name": "courseClass/department/currentYear",
			"property": "currentYear",
			"hidden": true
		},
		{
			"name": "courseClass/course/displayCode",
			"property": "displayCode",
			"hidden": true
		},
		{
			"name": "id",
			"hidden": true
		}
	],
	"searches": [],
	"paths": [],
	"criteria": [
		{
			"name": "eventName",
			"filter": "(indexof(name, '${value}') ge 0)",
			"type": "text"
		},
		{
			"name": "sections",
			"filter": "(sections/section eq ${value})",
			"type": "text"
		},
		{
			"name": "minDate",
			"filter": "(eventHoursSpecification/validFrom ge '${new Date(value).toISOString()}')",
			"type": "text"
		},
		{
			"name": "maxDate",
			"filter": "(eventHoursSpecification/validFrom le '${new Date(new Date(value).setHours(23,59,59,59)).toISOString()}')",
			"type": "text"
		},
		{
			"name": "status",
			"filter": "(eventStatus eq '${value}')",
			"type": "text"
		},
		{
			"name": "performer",
			"filter": "(${(Array.isArray(value) ? value : [value]).map(val => 'performer/alternateName eq ' + \"'\" + val + \"'\").join(' or ')})",
			"type": "text"
		},
		{
			"name": "courseClass",
			"filter": "(${(Array.isArray(value) ? value : [value]).map(val => 'courseClass eq ' + \"'\" + val + \"'\").join(' or ')})",
			"type": "text"
		}
	]
}