{
  "components": [
    {
      "label": "Columns",
      "columns": [
        {
          "components": [
            {
              "label": "Events.Name",
              "spellcheck": true,
              "tableView": true,
              "validate": {
                "unique": false,
                "multiple": false
              },
              "key": "name",
              "type": "textfield",
              "input": true,
              "hideOnChildrenHidden": false
            }
          ],
          "width": 4
        },
        {
          "components": [
            {
              "label": "Events.Status",
              "widget": "choicesjs",
              "tableView": true,
              "template": "{{ item.alternateName }}",
              "dataSrc": "url",
              "selectValues": "value",
              "valueProperty": "id",
              "data": {
                "url": "/EventStatusTypes?$select=id,alternateName",
                "headers": []
              },
              "selectThreshold": 0.3,
              "key": "eventStatus",
              "type": "select",
              "input": true,
              "hideOnChildrenHidden": false
            }
          ],
          "width": 4
        },
        {
          "components": [
            {
              "label": "Events.AdditionalType",
              "widget": "choicesjs",
              "tableVew": true,
              "data": {
                "values": [
                  {
                    "label": "Events.EventTypes.TeachingEvent",
                    "value": "teachingEvent"
                  },
                  {
                    "label": "Events.EventTypes.CourseExamEvent",
                    "value": "courseExamEvent"
                  },
                  {
                    "label": "Events.EventTypes.GraduationEvent",
                    "value": "graduationEvent"
                  }
                ]
              },
              "dataType": "string",
              "key": "additionalType",
              "type": "select",
              "input": true
            }
          ],
          "width": 4
        },
        {
          "components": [
            {
              "label": "Events.EventsAfter",
              "tableView": false,
              "enableTime": true,
              "enableMinDateInput": false,
              "datePicker": {
                "disableWeekends": false,
                "disableWeekdays": false
              },
              "enableMaxDateInput": false,
              "key": "minDate",
              "type": "datetime",
              "input": true,
              "widget": {
                "type": "calendar",
                "displayInTimezone": "viewer",
                "locale": "en",
                "useLocaleSettings": false,
                "allowInput": true,
                "mode": "single",
                "enableTime": true,
                "noCalendar": false,
                "format": "yyyy-MM-dd",
                "hourIncrement": 1,
                "minuteIncrement": 1,
                "time_24hr": true,
                "disableWeekends": false,
                "disableWeekdays": false
              }
            }
          ],
          "width": 3
        },
        {
          "components": [
            {
              "label": "Events.EventsBefore",
              "tableView": false,
              "enableMinDateInput": false,
              "enableTime": true,
              "datePicker": {
                "disableWeekends": false,
                "disableWeekdays": false
              },
              "enableMaxDateInput": false,
              "key": "maxDate",
              "type": "datetime",
              "input": true,
              "widget": {
                "type": "calendar",
                "displayInTimezone": "viewer",
                "locale": "en",
                "useLocaleSettings": false,
                "allowInput": true,
                "mode": "single",
                "enableTime": true,
                "noCalendar": false,
                "format": "yyyy-MM-dd",
                "hourIncrement": 1,
                "minuteIncrement": 1,
                "time_24hr": true,
                "disableWeekends": false,
                "disableWeekdays": false
              }

            }
          ],
          "width": 3
        },
        {
          "components": [
            {
              "label": "Events.Instructors.Department",
              "widget": "choicesjs",
              "dataSrc": "url",
              "defaultValue": "",
              "labelPosition": "top",
              "data": {
                "url": "Departments?$top=-1&$select=id,name"
              },
              "valueProperty": "id",
              "lazyLoad": true,
              "template": "{{ item.name }}",
              "selectThreshold": 0.3,
              "key": "organizer",
              "type": "select",
              "selectValues": "value",
              "input": true
            }
          ],
          "width": 6
        }
      ],
      "tableView": false,
      "key": "columns1",
      "type": "columns",
      "input": false,
      "path": "columns1"
    }
  ]
}
