{
  "title": "Events.Upcoming",
  "model": "Events",
  "searchExpression": "(indexof(name, '${text}') ge 0)",
  "columns": [
    {
      "name": "id",
      "property": "id",
      "hidden": true
    },
    {
      "name": "location/id",
      "property": "locationId",
      "hidden": true
    },
    {
      "name": "name",
      "title": "Events.Name"
    },
    {
      "name": "eventStatus/alternateName",
      "property": "eventStatus",
      "title": "Events.StatusGeneral",
      "formatter": "StatusFormatter"
    },
    {
      "name": "eventHoursSpecification/dayOfWeek",
      "property": "days",
      "title": "Events.Schedule",
      "className": "text-nowrap",
      "formatter": "EventHourSpecificationFormatter"
    },
    {
      "name": "eventHoursSpecification/validFrom",
      "property": "validFrom",
      "title": "Events.From",
      "formatter": "DateTimeFormatter",
      "formatString": "shortDate"
    },
    {
      "name": "eventHoursSpecification/validThrough",
      "property": "validThrough",
      "title": "Events.To",
      "formatter": "DateTimeFormatter",
      "formatString": "shortDate"
    },
    {
      "name": "eventHoursSpecification/opens",
      "property": "opens",
      "hidden": true
    },
    {
      "name": "eventHoursSpecification/closes",
      "property": "closes",
      "hidden": true
    },
    {
      "name": "additionalType",
      "title": "Events.AdditionalType",
      "formatter": "TranslationFormatter",
      "formatString": "Events.EventTypes.${value}"
    },
    {
      "name": "organizer/name",
      "property": "organizerName",
      "title": "Events.Instructors.Department"
    },
    {
      "name": "performer/alternateName",
      "property": "performerName",
      "title": "Events.Performer"
    },
    {
      "name": "location/name",
      "property": "location",
      "hidden": true
    }
  ],
  "defaults": {
    "filter": "eventHoursSpecification/validFrom ge '${new Date().toISOString()}' and location/id eq '${locationId}' and eventHoursSpecification ne null",
    "orderBy": "eventHoursSpecification/validFrom desc",
    "expand": "eventHoursSpecification"
  },
  "criteria": [
    {
      "name": "name",
      "filter": "(indexof(name, '${value}') ge 0)",
      "type": "text"
    },
    {
      "name": "eventStatus",
      "filter": "(eventStatus eq '${value}')",
      "type": "text"
    },
    {
      "name": "additionalType",
      "filter": "(additionalType eq '${value}')"
    },
    {
      "name": "minDate",
      "filter": "(eventHoursSpecification/validFrom ge '${new Date(value).toISOString()}')",
      "type": "text"
    },
    {
      "name": "maxDate",
      "filter": "(eventHoursSpecification/validFrom le '${new Date(new Date(value).setHours(23,59,59,59)).toISOString()}')",
      "type": "text"
    },
    {
      "name": "organizer",
      "filter": "(organizer eq '${value}')",
      "type": "text"
    }
  ],
  "paths": [
    {
      "name": "Events.Upcoming",
      "alternateName": "upcoming/all",
      "show": true
    },
    {
      "name": "Events.All",
      "alternateName": "list/all",
      "show": true
    }
  ]
}
